Decision Trees
…
Prediction

Use type="class" to get predictions

> loans %>% mutate(predictions = predict(loans_rpart, type="class")) %>%
+   select(Default, predictions, Duration.in.month, Credit.amount) %>% print(n=6)
# A tibble: 1,000 x 4
  Default   predictions Duration.in.month Credit.amount
  <fct>     <fct>                   <dbl>         <dbl>
1 NoDefault NoDefault                   6          1169
2 Default   NoDefault                  48          5951
3 NoDefault NoDefault                  12          2096
4 NoDefault NoDefault                  42          7882
5 Default   NoDefault                  24          4870
6 NoDefault NoDefault                  36          9055
# ... with 994 more rows
…
