Iterations with apply and do
…
do in dplyr: getting quantiles

group by building and day of the week

> qdf3 <- energy_narrow %>%
+   group_by(building, dayWeek) %>%
+   do(qfun2(data = .))
> qdf3  
# A tibble: 5,166 x 5
# Groups:   building, dayWeek [574]
   building          dayWeek      q     p qtype  
   <chr>             <fct>    <dbl> <dbl> <chr>  
 1 100_Nevada_Street Mon     0.0972   0.1 Perc10%
 2 100_Nevada_Street Mon     0.120    0.2 Perc20%
 3 100_Nevada_Street Mon     0.183    0.3 Perc30%
 4 100_Nevada_Street Mon     0.680    0.4 Perc40%
 5 100_Nevada_Street Mon     0.710    0.5 Perc50%
 6 100_Nevada_Street Mon     0.795    0.6 Perc60%
 7 100_Nevada_Street Mon     0.915    0.7 Perc70%
 8 100_Nevada_Street Mon     1.11     0.8 Perc80%
 9 100_Nevada_Street Mon     1.24     0.9 Perc90%
10 100_Nevada_Street Tues    0.0972   0.1 Perc10%
# ... with 5,156 more rows
…
