Logistic regression for classification
…
Loans example (prob estimation)

The probability of default is estimated to be:

\[ \hat{\pi} = \dfrac{e^{-0.700-0.140ln(Credit) + 0.0433Duration}}{1 + e^{-0.700-0.140ln(Credit) + 0.0433Duration}}\]

Loans example (add predictions)

Add the estimated probabilities and predicted responses to the data frame using a 0.5 threshold:

> loans <- loans %>%
+   mutate(probs1 = predict(default.glm1, type="response"), 
+          prediction1 = ifelse( probs1 >= .5, "Default", "NoDefault") ) 
> loans %>% select(Default, probs1, prediction1) %>% print(n=4)
# A tibble: 1,000 x 3
  Default   probs1 prediction1
  <fct>      <dbl> <chr>      
1 NoDefault  0.194 NoDefault  
2 Default    0.541 Default    
3 NoDefault  0.223 NoDefault  
4 NoDefault  0.467 NoDefault  
# ... with 996 more rows
…
